EESchema Schematic File Version 4
EELAYER 30 0
EELAYER END
$Descr A4 11693 8268
encoding utf-8
Sheet 1 1
Title "Picogun"
Date "2020-12-21"
Rev "2.3.6"
Comp "Retrocircuitos"
Comment1 "Arcade video signal to SCART"
Comment2 ""
Comment3 ""
Comment4 ""
$EndDescr
$Comp
L Device:R_POT R8
U 1 1 5D66478A
P 1950 3700
F 0 "R8" V 1835 3700 50  0000 C CNN
F 1 "1K" V 1744 3700 50  0000 C CNN
F 2 "Miscelánea:BOURNS-3362P_pot" H 1950 3700 50  0001 C CNN
F 3 "~" H 1950 3700 50  0001 C CNN
	1    1950 3700
	0    -1   -1   0   
$EndComp
$Comp
L Device:R_POT G1
U 1 1 5D664D98
P 1950 4100
F 0 "G1" V 1835 4100 50  0000 C CNN
F 1 "1K" V 1744 4100 50  0000 C CNN
F 2 "Miscelánea:BOURNS-3362P_pot" H 1950 4100 50  0001 C CNN
F 3 "~" H 1950 4100 50  0001 C CNN
	1    1950 4100
	0    -1   -1   0   
$EndComp
$Comp
L Device:R_POT B1
U 1 1 5D66506B
P 1950 4500
F 0 "B1" V 1835 4500 50  0000 C CNN
F 1 "1K" V 1744 4500 50  0000 C CNN
F 2 "Miscelánea:BOURNS-3362P_pot" H 1950 4500 50  0001 C CNN
F 3 "~" H 1950 4500 50  0001 C CNN
	1    1950 4500
	0    -1   -1   0   
$EndComp
$Comp
L Device:C C2
U 1 1 5D665B23
P 2750 3550
F 0 "C2" V 2498 3550 50  0000 C CNN
F 1 "100nf" V 2589 3550 50  0000 C CNN
F 2 "Capacitor_SMD:C_0805_2012Metric_Pad1.15x1.40mm_HandSolder" H 2788 3400 30  0001 C CNN
F 3 "" H 2750 3550 60  0000 C CNN
	1    2750 3550
	0    1    1    0   
$EndComp
$Comp
L Device:C C3
U 1 1 5D665DEA
P 2750 3950
F 0 "C3" V 2498 3950 50  0000 C CNN
F 1 "100nf" V 2589 3950 50  0000 C CNN
F 2 "Capacitor_SMD:C_0805_2012Metric_Pad1.15x1.40mm_HandSolder" H 2788 3800 30  0001 C CNN
F 3 "" H 2750 3950 60  0000 C CNN
	1    2750 3950
	0    1    1    0   
$EndComp
$Comp
L Device:C C4
U 1 1 5D666218
P 2750 4350
F 0 "C4" V 2498 4350 50  0000 C CNN
F 1 "100nf" V 2589 4350 50  0000 C CNN
F 2 "Capacitor_SMD:C_0805_2012Metric_Pad1.15x1.40mm_HandSolder" H 2788 4200 30  0001 C CNN
F 3 "" H 2750 4350 60  0000 C CNN
	1    2750 4350
	0    1    1    0   
$EndComp
$Comp
L power:GND #PWR0101
U 1 1 5D669BD5
P 2150 4950
F 0 "#PWR0101" H 2150 4700 50  0001 C CNN
F 1 "GND" H 2155 4777 50  0000 C CNN
F 2 "" H 2150 4950 50  0001 C CNN
F 3 "" H 2150 4950 50  0001 C CNN
	1    2150 4950
	1    0    0    -1  
$EndComp
Wire Wire Line
	1150 3700 1800 3700
$Comp
L power:GND #PWR0102
U 1 1 5D66DDBA
P 3800 6000
F 0 "#PWR0102" H 3800 5750 50  0001 C CNN
F 1 "GND" H 3805 5827 50  0000 C CNN
F 2 "" H 3800 6000 50  0001 C CNN
F 3 "" H 3800 6000 50  0001 C CNN
	1    3800 6000
	1    0    0    -1  
$EndComp
$Comp
L Device:R R1
U 1 1 5D6E8375
P 4350 4750
F 0 "R1" V 4135 4750 50  0000 C CNN
F 1 "100K" V 4226 4750 50  0000 C CNN
F 2 "Resistor_SMD:R_0805_2012Metric_Pad1.15x1.40mm_HandSolder" H 4280 4750 30  0001 C CNN
F 3 "" H 4450 4750 30  0001 C CNN
	1    4350 4750
	0    1    1    0   
$EndComp
$Comp
L power:+5V #PWR0103
U 1 1 5D6E945C
P 4650 4750
F 0 "#PWR0103" H 4650 4600 50  0001 C CNN
F 1 "+5V" H 4665 4923 50  0000 C CNN
F 2 "" H 4650 4750 50  0001 C CNN
F 3 "" H 4650 4750 50  0001 C CNN
	1    4650 4750
	1    0    0    -1  
$EndComp
$Comp
L power:GND #PWR0104
U 1 1 5D6E9E1F
P 4650 5000
F 0 "#PWR0104" H 4650 4750 50  0001 C CNN
F 1 "GND" H 4655 4827 50  0000 C CNN
F 2 "" H 4650 5000 50  0001 C CNN
F 3 "" H 4650 5000 50  0001 C CNN
	1    4650 5000
	1    0    0    -1  
$EndComp
$Comp
L Jumper:Jumper_2_Open JP1
U 1 1 5D6EA42C
P 4450 5000
F 0 "JP1" H 4450 5235 50  0000 C CNN
F 1 "Jumper_2_Open" H 4450 5144 50  0000 C CNN
F 2 "Connector_PinHeader_2.54mm:PinHeader_1x02_P2.54mm_Vertical" H 4450 5000 50  0001 C CNN
F 3 "~" H 4450 5000 50  0001 C CNN
	1    4450 5000
	1    0    0    -1  
$EndComp
Wire Wire Line
	3900 4750 3900 5000
Wire Wire Line
	3900 5000 4250 5000
Connection ~ 3900 4750
$Comp
L Device:R R4
U 1 1 5D71BFB5
P 5650 3750
F 0 "R4" V 5435 3750 50  0000 C CNN
F 1 "75" V 5526 3750 50  0000 C CNN
F 2 "Resistor_SMD:R_0805_2012Metric_Pad1.15x1.40mm_HandSolder" H 5580 3750 30  0001 C CNN
F 3 "" H 5750 3750 30  0001 C CNN
	1    5650 3750
	0    1    1    0   
$EndComp
$Comp
L Device:R R5
U 1 1 5D71C5C9
P 5650 3950
F 0 "R5" V 5435 3950 50  0000 C CNN
F 1 "75" V 5526 3950 50  0000 C CNN
F 2 "Resistor_SMD:R_0805_2012Metric_Pad1.15x1.40mm_HandSolder" H 5580 3950 30  0001 C CNN
F 3 "" H 5750 3950 30  0001 C CNN
	1    5650 3950
	0    1    1    0   
$EndComp
$Comp
L Connector:TestPoint_Flag TP2
U 1 1 5D761AB0
P 1150 3700
F 0 "TP2" H 1106 3702 50  0000 R CNN
F 1 "Ri" H 1106 3793 50  0000 R CNN
F 2 "picogun:MISC_SolderPad5x5" H 1350 3700 50  0001 C CNN
F 3 "~" H 1350 3700 50  0001 C CNN
	1    1150 3700
	-1   0    0    1   
$EndComp
$Comp
L Connector:TestPoint_Flag TP16
U 1 1 5D760D0D
P 3950 950
F 0 "TP16" H 3906 952 50  0000 R CNN
F 1 "Si" H 3906 1043 50  0000 R CNN
F 2 "picogun:MISC_SolderPad5x5" H 4150 950 50  0001 C CNN
F 3 "~" H 4150 950 50  0001 C CNN
	1    3950 950 
	-1   0    0    1   
$EndComp
$Comp
L Connector:TestPoint_Flag TP3
U 1 1 5D762CC7
P 1150 4100
F 0 "TP3" H 1106 4102 50  0000 R CNN
F 1 "Gi" H 1106 4193 50  0000 R CNN
F 2 "picogun:MISC_SolderPad5x5" H 1350 4100 50  0001 C CNN
F 3 "~" H 1350 4100 50  0001 C CNN
	1    1150 4100
	-1   0    0    1   
$EndComp
$Comp
L Connector:TestPoint_Flag TP4
U 1 1 5D76325A
P 1150 4500
F 0 "TP4" H 1106 4502 50  0000 R CNN
F 1 "Bi" H 1106 4593 50  0000 R CNN
F 2 "picogun:MISC_SolderPad5x5" H 1350 4500 50  0001 C CNN
F 3 "~" H 1350 4500 50  0001 C CNN
	1    1150 4500
	-1   0    0    1   
$EndComp
$Comp
L Connector:TestPoint_Flag TP5
U 1 1 5D7645F0
P 7300 950
F 0 "TP5" H 7560 1044 50  0000 L CNN
F 1 "So" H 7560 953 50  0000 L CNN
F 2 "picogun:MISC_SolderPad5x5" H 7500 950 50  0001 C CNN
F 3 "~" H 7500 950 50  0001 C CNN
	1    7300 950 
	1    0    0    -1  
$EndComp
$Comp
L Connector:TestPoint_Flag TP6
U 1 1 5D7650B1
P 5800 3550
F 0 "TP6" H 6060 3644 50  0000 L CNN
F 1 "Ro" H 6060 3553 50  0000 L CNN
F 2 "picogun:MISC_SolderPad5x5" H 6000 3550 50  0001 C CNN
F 3 "~" H 6000 3550 50  0001 C CNN
	1    5800 3550
	1    0    0    -1  
$EndComp
$Comp
L Connector:TestPoint_Flag TP7
U 1 1 5D76550D
P 5800 3750
F 0 "TP7" H 6060 3844 50  0000 L CNN
F 1 "Go" H 6060 3753 50  0000 L CNN
F 2 "picogun:MISC_SolderPad5x5" H 6000 3750 50  0001 C CNN
F 3 "~" H 6000 3750 50  0001 C CNN
	1    5800 3750
	1    0    0    -1  
$EndComp
$Comp
L Connector:TestPoint_Flag TP8
U 1 1 5D765955
P 5800 3950
F 0 "TP8" H 6060 4044 50  0000 L CNN
F 1 "Bo" H 6060 3953 50  0000 L CNN
F 2 "picogun:MISC_SolderPad5x5" H 6000 3950 50  0001 C CNN
F 3 "~" H 6000 3950 50  0001 C CNN
	1    5800 3950
	1    0    0    -1  
$EndComp
Wire Wire Line
	4300 3850 4300 3950
Wire Wire Line
	3900 4200 3900 4750
Wire Wire Line
	3400 3650 3400 3950
Wire Wire Line
	3400 3650 4300 3650
Wire Wire Line
	3550 3750 3550 4350
Wire Wire Line
	3550 3750 4300 3750
Wire Wire Line
	3800 3950 4050 3950
Wire Wire Line
	4950 3550 5500 3550
Wire Wire Line
	5350 3750 5350 3950
Wire Wire Line
	4950 3750 5350 3750
Connection ~ 5600 6800
Wire Wire Line
	5600 7100 5600 6800
Wire Wire Line
	5300 7100 5300 7250
Connection ~ 5300 7100
Wire Wire Line
	5300 6800 5300 7100
Connection ~ 5300 6800
$Comp
L power:GND #PWR0108
U 1 1 5D78CFC3
P 5300 7250
F 0 "#PWR0108" H 5300 7000 50  0001 C CNN
F 1 "GND" H 5305 7077 50  0000 C CNN
F 2 "" H 5300 7250 50  0001 C CNN
F 3 "" H 5300 7250 50  0001 C CNN
	1    5300 7250
	1    0    0    -1  
$EndComp
$Comp
L Device:C C6
U 1 1 5D778479
P 5450 6800
F 0 "C6" V 5198 6800 50  0000 C CNN
F 1 "1uf" V 5289 6800 50  0000 C CNN
F 2 "Capacitor_SMD:C_0805_2012Metric_Pad1.15x1.40mm_HandSolder" H 5488 6650 30  0001 C CNN
F 3 "" H 5450 6800 60  0000 C CNN
	1    5450 6800
	0    1    1    0   
$EndComp
$Comp
L Device:C C5
U 1 1 5D777EB9
P 5450 6450
F 0 "C5" V 5198 6450 50  0000 C CNN
F 1 "10nf" V 5289 6450 50  0000 C CNN
F 2 "Capacitor_SMD:C_0805_2012Metric_Pad1.15x1.40mm_HandSolder" H 5488 6300 30  0001 C CNN
F 3 "" H 5450 6450 60  0000 C CNN
	1    5450 6450
	0    1    1    0   
$EndComp
$Comp
L power:+5V #PWR0106
U 1 1 5D77486E
P 6400 6450
F 0 "#PWR0106" H 6400 6300 50  0001 C CNN
F 1 "+5V" H 6415 6623 50  0000 C CNN
F 2 "" H 6400 6450 50  0001 C CNN
F 3 "" H 6400 6450 50  0001 C CNN
	1    6400 6450
	1    0    0    -1  
$EndComp
Wire Wire Line
	3900 4200 5050 4200
Wire Wire Line
	5050 4200 5050 3950
Wire Wire Line
	5050 3950 4950 3950
Wire Wire Line
	4950 3850 5250 3850
Wire Wire Line
	5600 6450 5600 6800
Wire Wire Line
	5300 6450 5300 6800
Wire Wire Line
	1950 3550 2600 3550
Wire Wire Line
	1950 3950 2600 3950
Wire Wire Line
	1950 4350 2600 4350
Wire Wire Line
	2100 3700 2150 3700
Wire Wire Line
	2150 3700 2150 4100
Wire Wire Line
	2100 4100 2150 4100
Connection ~ 2150 4100
Wire Wire Line
	2150 4100 2150 4500
Wire Wire Line
	2100 4500 2150 4500
Connection ~ 2150 4500
Wire Wire Line
	2150 4500 2150 4950
Text Notes 3950 5300 0    50   ~ 0
LPF desactivado sin jumper
Wire Wire Line
	2900 3950 3400 3950
Wire Wire Line
	2900 4350 3550 4350
$Comp
L 74xx:74HC14 U2
U 1 1 5E3B0CDD
P 4800 950
F 0 "U2" H 4800 1267 50  0000 C CNN
F 1 "74HC14" H 4800 1176 50  0000 C CNN
F 2 "Package_SO:SOIC-14_3.9x8.7mm_P1.27mm" H 4800 950 50  0001 C CNN
F 3 "http://www.ti.com/lit/gpn/sn74HC14" H 4800 950 50  0001 C CNN
	1    4800 950 
	1    0    0    -1  
$EndComp
$Comp
L 74xx:74HC14 U2
U 2 1 5E3B5E1D
P 5450 950
F 0 "U2" H 5450 1267 50  0000 C CNN
F 1 "74HC14" H 5450 1176 50  0000 C CNN
F 2 "Package_SO:SOIC-14_3.9x8.7mm_P1.27mm" H 5450 950 50  0001 C CNN
F 3 "http://www.ti.com/lit/gpn/sn74HC14" H 5450 950 50  0001 C CNN
	2    5450 950 
	1    0    0    -1  
$EndComp
$Comp
L 74xx:74HC14 U2
U 3 1 5E3B6B6B
P 4800 1450
F 0 "U2" H 4800 1767 50  0000 C CNN
F 1 "74HC14" H 4800 1676 50  0000 C CNN
F 2 "Package_SO:SOIC-14_3.9x8.7mm_P1.27mm" H 4800 1450 50  0001 C CNN
F 3 "http://www.ti.com/lit/gpn/sn74HC14" H 4800 1450 50  0001 C CNN
	3    4800 1450
	1    0    0    -1  
$EndComp
$Comp
L 74xx:74HC14 U2
U 4 1 5E3B7E5F
P 5450 1450
F 0 "U2" H 5450 1767 50  0000 C CNN
F 1 "74HC14" H 5450 1676 50  0000 C CNN
F 2 "Package_SO:SOIC-14_3.9x8.7mm_P1.27mm" H 5450 1450 50  0001 C CNN
F 3 "http://www.ti.com/lit/gpn/sn74HC14" H 5450 1450 50  0001 C CNN
	4    5450 1450
	1    0    0    -1  
$EndComp
$Comp
L 74xx:74HC14 U2
U 5 1 5E3B91CB
P 4800 1950
F 0 "U2" H 4800 2267 50  0000 C CNN
F 1 "74HC14" H 4800 2176 50  0000 C CNN
F 2 "Package_SO:SOIC-14_3.9x8.7mm_P1.27mm" H 4800 1950 50  0001 C CNN
F 3 "http://www.ti.com/lit/gpn/sn74HC14" H 4800 1950 50  0001 C CNN
	5    4800 1950
	1    0    0    -1  
$EndComp
$Comp
L 74xx:74HC14 U2
U 6 1 5E3BA254
P 5450 1950
F 0 "U2" H 5450 2267 50  0000 C CNN
F 1 "74HC14" H 5450 2176 50  0000 C CNN
F 2 "Package_SO:SOIC-14_3.9x8.7mm_P1.27mm" H 5450 1950 50  0001 C CNN
F 3 "http://www.ti.com/lit/gpn/sn74HC14" H 5450 1950 50  0001 C CNN
	6    5450 1950
	1    0    0    -1  
$EndComp
Wire Wire Line
	5100 950  5150 950 
NoConn ~ 5100 1450
NoConn ~ 5750 1450
NoConn ~ 5750 1950
NoConn ~ 5100 1950
Wire Wire Line
	5150 1450 5150 1950
Wire Wire Line
	5150 2450 4500 2450
Wire Wire Line
	4500 2450 4500 1950
Connection ~ 5150 1950
Wire Wire Line
	5150 1950 5150 2450
Connection ~ 4500 1950
Wire Wire Line
	4500 1950 4500 1450
$Comp
L power:GND #PWR0109
U 1 1 5E3D4DD0
P 5150 2450
F 0 "#PWR0109" H 5150 2200 50  0001 C CNN
F 1 "GND" H 5155 2277 50  0000 C CNN
F 2 "" H 5150 2450 50  0001 C CNN
F 3 "" H 5150 2450 50  0001 C CNN
	1    5150 2450
	1    0    0    -1  
$EndComp
Connection ~ 5150 2450
Wire Wire Line
	5150 2450 5300 2450
$Comp
L Device:C C1
U 1 1 5E3DE7AA
P 5800 2900
F 0 "C1" V 5548 2900 50  0000 C CNN
F 1 "100nF" V 5639 2900 50  0000 C CNN
F 2 "Capacitor_SMD:C_0805_2012Metric_Pad1.15x1.40mm_HandSolder" H 5838 2750 50  0001 C CNN
F 3 "~" H 5800 2900 50  0001 C CNN
	1    5800 2900
	0    1    1    0   
$EndComp
Wire Wire Line
	5300 2450 5300 2900
Wire Wire Line
	5300 2900 5650 2900
Wire Wire Line
	5950 2900 6300 2900
Wire Wire Line
	6300 2900 6300 2450
Wire Wire Line
	4300 3450 4050 3450
Wire Wire Line
	4050 3450 4050 3950
Connection ~ 4050 3950
Wire Wire Line
	4050 3950 4300 3950
NoConn ~ 4950 3450
Wire Wire Line
	6500 950  5750 950 
Wire Wire Line
	4500 950  3950 950 
Wire Wire Line
	3800 3950 3800 6000
$Comp
L Device:R R2
U 1 1 5E430A83
P 6650 950
F 0 "R2" V 6443 950 50  0000 C CNN
F 1 "470R" V 6534 950 50  0000 C CNN
F 2 "Resistor_SMD:R_0805_2012Metric_Pad1.15x1.40mm_HandSolder" V 6580 950 50  0001 C CNN
F 3 "~" H 6650 950 50  0001 C CNN
	1    6650 950 
	0    1    1    0   
$EndComp
$Comp
L Device:R R7
U 1 1 5E4313B8
P 6950 1700
F 0 "R7" H 6880 1654 50  0000 R CNN
F 1 "87R5" H 6880 1745 50  0000 R CNN
F 2 "Resistor_SMD:R_0805_2012Metric_Pad1.15x1.40mm_HandSolder" V 6880 1700 50  0001 C CNN
F 3 "~" H 6950 1700 50  0001 C CNN
	1    6950 1700
	-1   0    0    1   
$EndComp
$Comp
L Device:Jumper JP2
U 1 1 5E4322E5
P 6950 1250
F 0 "JP2" V 6904 1377 50  0000 L CNN
F 1 "Jumper" V 6995 1377 50  0000 L CNN
F 2 "Connector_PinHeader_2.54mm:PinHeader_1x02_P2.54mm_Vertical" H 6950 1250 50  0001 C CNN
F 3 "~" H 6950 1250 50  0001 C CNN
	1    6950 1250
	0    1    1    0   
$EndComp
Wire Wire Line
	6800 950  6950 950 
Connection ~ 6950 950 
Wire Wire Line
	6950 950  7300 950 
$Comp
L power:GND #PWR0113
U 1 1 5E4427E6
P 6950 1850
F 0 "#PWR0113" H 6950 1600 50  0001 C CNN
F 1 "GND" H 6955 1677 50  0000 C CNN
F 2 "" H 6950 1850 50  0001 C CNN
F 3 "" H 6950 1850 50  0001 C CNN
	1    6950 1850
	1    0    0    -1  
$EndComp
Text Notes 7400 1200 0    50   ~ 0
Con jumper CSYNC es de unos 400mV y 75 ohmios de impedancia\nSin el jumper la señal CSYNC es TTL
Wire Wire Line
	3900 4750 4200 4750
Wire Wire Line
	4500 4750 4650 4750
$Comp
L Device:Ferrite_Bead FB1
U 1 1 5FD8FA6D
P 6150 6450
F 0 "FB1" V 5876 6450 50  0000 C CNN
F 1 "Ferrite_Bead" V 5967 6450 50  0000 C CNN
F 2 "Inductor_SMD:L_0805_2012Metric_Pad1.15x1.40mm_HandSolder" V 6080 6450 50  0001 C CNN
F 3 "~" H 6150 6450 50  0001 C CNN
	1    6150 6450
	0    1    1    0   
$EndComp
Wire Wire Line
	5600 6450 5850 6450
Connection ~ 5600 6450
Connection ~ 5300 2450
$Comp
L 74xx:74HC14 U2
U 7 1 5E3BB51E
P 5800 2450
F 0 "U2" V 5433 2450 50  0000 C CNN
F 1 "74HC14" V 5524 2450 50  0000 C CNN
F 2 "Package_SO:SOIC-14_3.9x8.7mm_P1.27mm" H 5800 2450 50  0001 C CNN
F 3 "http://www.ti.com/lit/gpn/sn74HC14" H 5800 2450 50  0001 C CNN
	7    5800 2450
	0    1    1    0   
$EndComp
Wire Wire Line
	6300 2450 8050 2450
Wire Wire Line
	8050 2450 8050 5850
Wire Wire Line
	8050 5850 5850 5850
Wire Wire Line
	5850 5850 5850 6100
Connection ~ 6300 2450
Connection ~ 5850 6450
Wire Wire Line
	5850 6450 6000 6450
Wire Wire Line
	5250 3850 5250 6100
Wire Wire Line
	5250 6100 5850 6100
Connection ~ 5850 6100
Wire Wire Line
	5850 6100 5850 6450
$Comp
L picogun:THS7374 U1
U 1 1 5FE0E64E
P 4350 3300
F 0 "U1" H 4625 3375 50  0000 C CNN
F 1 "THS7374" H 4625 3284 50  0000 C CNN
F 2 "Package_SO:TSSOP-14_4.4x5mm_P0.65mm" H 4350 3300 50  0001 C CNN
F 3 "" H 4350 3300 50  0001 C CNN
	1    4350 3300
	1    0    0    -1  
$EndComp
Connection ~ 4300 3950
Wire Wire Line
	2900 3550 4300 3550
Wire Wire Line
	1150 4100 1800 4100
Wire Wire Line
	1150 4500 1800 4500
$Comp
L Device:R R3
U 1 1 5D71B97C
P 5650 3550
F 0 "R3" V 5435 3550 50  0000 C CNN
F 1 "75" V 5526 3550 50  0000 C CNN
F 2 "Resistor_SMD:R_0805_2012Metric_Pad1.15x1.40mm_HandSolder" H 5580 3550 30  0001 C CNN
F 3 "" H 5750 3550 30  0001 C CNN
	1    5650 3550
	0    1    1    0   
$EndComp
Wire Wire Line
	5500 3650 5500 3750
Wire Wire Line
	4950 3650 5500 3650
Wire Wire Line
	5350 3950 5500 3950
Wire Wire Line
	6300 6450 6400 6450
$Comp
L Device:CP C7
U 1 1 5D7774D2
P 5450 7100
F 0 "C7" V 5195 7100 50  0000 C CNN
F 1 "100uF" V 5286 7100 50  0000 C CNN
F 2 "Capacitor_THT:CP_Radial_D5.0mm_P2.00mm" H 5488 6950 50  0001 C CNN
F 3 "~" H 5450 7100 50  0001 C CNN
	1    5450 7100
	0    1    1    0   
$EndComp
$EndSCHEMATC
