(module MISC_SolderPad5x5 (layer F.Cu) (tedit 5D52CC79)
  (fp_text reference REF** (at 0 -1.6) (layer F.SilkS)
    (effects (font (size 1 1) (thickness 0.15)))
  )
  (fp_text value MISC_SolderPad5x5 (at 0.2 -3) (layer F.Fab)
    (effects (font (size 1 1) (thickness 0.15)))
  )
  (pad 1 smd rect (at 0 0) (size 2.54 1.524) (layers F.Cu F.Paste F.Mask))
)
