(module miscelanea:BOURNS-3362P_pot (layer F.Cu) (tedit 0)
  (fp_text reference BOURNS-3362P_pot (at 0 5.08) (layer F.SilkS)
    (effects (font (size 0.762 0.762) (thickness 0.1524)))
  )
  (fp_text value VAL** (at 0 0) (layer F.SilkS) hide
    (effects (font (size 0.762 0.762) (thickness 0.1524)))
  )
  (fp_line (start -3.5 1.5) (end -3.5 -3.5) (layer F.SilkS) (width 0.381))
  (fp_line (start -1.5 3.5) (end 3.5 3.5) (layer F.SilkS) (width 0.381))
  (fp_line (start -3.5 1.5) (end -1.5 3.5) (layer F.SilkS) (width 0.381))
  (fp_circle (center -3 3) (end -3 3.5) (layer F.SilkS) (width 0.381))
  (fp_line (start -3.5 -3.5) (end 3.5 -3.5) (layer F.SilkS) (width 0.381))
  (fp_line (start 3.5 -3.5) (end 3.5 3.5) (layer F.SilkS) (width 0.381))
  (pad 1 thru_hole rect (at -2.54 0) (size 1.4 1.4) (drill 0.7) (layers *.Cu *.Mask F.SilkS))
  (pad 3 thru_hole circle (at 2.54 0) (size 1.4 1.4) (drill 0.7) (layers *.Cu *.Mask F.SilkS))
  (pad 2 thru_hole circle (at 0 -2.54) (size 1.4 1.4) (drill 0.7) (layers *.Cu *.Mask F.SilkS))
)
